{
  "psfinaid": 
  [
    {
      "AID_ID": "AID_YEAR_LINK_FLD$0",
      "AID_YEAR": "2016",
      "INSTITUTION": "Claremont Graduate University",
      "DESCRIPTION": "2015-2016"
    },
    {
      "AID_ID": "AID_YEAR_LINK_FLD$1",
      "AID_YEAR": "2015",
      "INSTITUTION": "Claremont Graduate University",
      "DESCRIPTION": "2014-2015"
    },
    {
      "AID_ID": "AID_YEAR_LINK_FLD$2",
      "AID_YEAR": "2011",
      "INSTITUTION": "Claremont Graduate University",
      "DESCRIPTION": "2010-2011"
    },
    {
      "AID_ID": "AID_YEAR_LINK_FLD$3",
      "AID_YEAR": "2010",
      "INSTITUTION": "Claremont Graduate University",
      "DESCRIPTION": "2009-2010"
    },
    {
      "AID_ID": "AID_YEAR_LINK_FLD$4",
      "AID_YEAR": "2008",
      "INSTITUTION": "Claremont Graduate University",
      "DESCRIPTION": "2007-2008"
    }
  ]
}