{
  "ADDRESS_TYPES": 
  [
    {
      "TYPE_CODE": "DERIVED_SS_PD_APPLIES_TO$chk$0",
      "TYPE_DESC": "Permanent"
    },
    {
      "TYPE_CODE": "DERIVED_SS_PD_APPLIES_TO$chk$1",
      "TYPE_DESC": "Mail"
    },
    {
      "TYPE_CODE": "DERIVED_SS_PD_APPLIES_TO$chk$2",
      "TYPE_DESC": "Billing"
    },
    {
      "TYPE_CODE": "DERIVED_SS_PD_APPLIES_TO$chk$3",
      "TYPE_DESC": "Work"
    },
    {
      "TYPE_CODE": "DERIVED_SS_PD_APPLIES_TO$chk$4",
      "TYPE_DESC": "Foreign"
    },
    {
      "TYPE_CODE": "DERIVED_SS_PD_APPLIES_TO$chk$5",
      "TYPE_DESC": "Alumni"
    }
  ]
}