{
  "COUNTRY_CODES": 
  [
    {
      "COUNTRY_CODE": "#ICRow0",
      "COUNTRY_DESC": "Aruba"
    },
    {
      "COUNTRY_CODE": "#ICRow1",
      "COUNTRY_DESC": "Afghanistan"
    },
    {
      "COUNTRY_CODE": "#ICRow2",
      "COUNTRY_DESC": "Angola"
    },
    {
      "COUNTRY_CODE": "#ICRow3",
      "COUNTRY_DESC": "Anguilla"
    },
    {
      "COUNTRY_CODE": "#ICRow4",
      "COUNTRY_DESC": "Aland Islands"
    },
    {
      "COUNTRY_CODE": "#ICRow5",
      "COUNTRY_DESC": "Albania"
    },
    {
      "COUNTRY_CODE": "#ICRow6",
      "COUNTRY_DESC": "Andorra"
    },
    {
      "COUNTRY_CODE": "#ICRow7",
      "COUNTRY_DESC": "Netherlands Antilles"
    },
    {
      "COUNTRY_CODE": "#ICRow8",
      "COUNTRY_DESC": "United Arab Emirates"
    },
    {
      "COUNTRY_CODE": "#ICRow9",
      "COUNTRY_DESC": "Argentina"
    },
    {
      "COUNTRY_CODE": "#ICRow10",
      "COUNTRY_DESC": "Armenia"
    },
    {
      "COUNTRY_CODE": "#ICRow11",
      "COUNTRY_DESC": "American Samoa"
    },
    {
      "COUNTRY_CODE": "#ICRow12",
      "COUNTRY_DESC": "Antarctica"
    },
    {
      "COUNTRY_CODE": "#ICRow13",
      "COUNTRY_DESC": "French Southern Territories"
    },
    {
      "COUNTRY_CODE": "#ICRow14",
      "COUNTRY_DESC": "Antigua and Barbuda"
    },
    {
      "COUNTRY_CODE": "#ICRow15",
      "COUNTRY_DESC": "Australia"
    },
    {
      "COUNTRY_CODE": "#ICRow16",
      "COUNTRY_DESC": "Austria"
    },
    {
      "COUNTRY_CODE": "#ICRow17",
      "COUNTRY_DESC": "Azerbaijan"
    },
    {
      "COUNTRY_CODE": "#ICRow18",
      "COUNTRY_DESC": "Burundi"
    },
    {
      "COUNTRY_CODE": "#ICRow19",
      "COUNTRY_DESC": "Belgium"
    },
    {
      "COUNTRY_CODE": "#ICRow20",
      "COUNTRY_DESC": "Benin"
    },
    {
      "COUNTRY_CODE": "#ICRow21",
      "COUNTRY_DESC": "Burkina Faso"
    },
    {
      "COUNTRY_CODE": "#ICRow22",
      "COUNTRY_DESC": "Bangladesh"
    },
    {
      "COUNTRY_CODE": "#ICRow23",
      "COUNTRY_DESC": "Bulgaria"
    },
    {
      "COUNTRY_CODE": "#ICRow24",
      "COUNTRY_DESC": "Bahrain"
    },
    {
      "COUNTRY_CODE": "#ICRow25",
      "COUNTRY_DESC": "Bahamas"
    },
    {
      "COUNTRY_CODE": "#ICRow26",
      "COUNTRY_DESC": "Bosnia and Herzegovina"
    },
    {
      "COUNTRY_CODE": "#ICRow27",
      "COUNTRY_DESC": "Saint Barthelemy"
    },
    {
      "COUNTRY_CODE": "#ICRow28",
      "COUNTRY_DESC": "Belarus"
    },
    {
      "COUNTRY_CODE": "#ICRow29",
      "COUNTRY_DESC": "Belize"
    },
    {
      "COUNTRY_CODE": "#ICRow30",
      "COUNTRY_DESC": "Bermuda"
    },
    {
      "COUNTRY_CODE": "#ICRow31",
      "COUNTRY_DESC": "Bolivia"
    },
    {
      "COUNTRY_CODE": "#ICRow32",
      "COUNTRY_DESC": "Brazil"
    },
    {
      "COUNTRY_CODE": "#ICRow33",
      "COUNTRY_DESC": "Barbados"
    },
    {
      "COUNTRY_CODE": "#ICRow34",
      "COUNTRY_DESC": "Brunei Darussalam"
    },
    {
      "COUNTRY_CODE": "#ICRow35",
      "COUNTRY_DESC": "Bhutan"
    },
    {
      "COUNTRY_CODE": "#ICRow36",
      "COUNTRY_DESC": "Bouvet Island"
    },
    {
      "COUNTRY_CODE": "#ICRow37",
      "COUNTRY_DESC": "Botswana"
    },
    {
      "COUNTRY_CODE": "#ICRow38",
      "COUNTRY_DESC": "Central African Republic"
    },
    {
      "COUNTRY_CODE": "#ICRow39",
      "COUNTRY_DESC": "Canada"
    },
    {
      "COUNTRY_CODE": "#ICRow40",
      "COUNTRY_DESC": "Cocos (Keeling) Islands"
    },
    {
      "COUNTRY_CODE": "#ICRow41",
      "COUNTRY_DESC": "Switzerland"
    },
    {
      "COUNTRY_CODE": "#ICRow42",
      "COUNTRY_DESC": "Chile"
    },
    {
      "COUNTRY_CODE": "#ICRow43",
      "COUNTRY_DESC": "China"
    },
    {
      "COUNTRY_CODE": "#ICRow44",
      "COUNTRY_DESC": "Cote D'Ivoire"
    },
    {
      "COUNTRY_CODE": "#ICRow45",
      "COUNTRY_DESC": "Cameroon"
    },
    {
      "COUNTRY_CODE": "#ICRow46",
      "COUNTRY_DESC": "Congo, The Democratic Republic"
    },
    {
      "COUNTRY_CODE": "#ICRow47",
      "COUNTRY_DESC": "Congo"
    },
    {
      "COUNTRY_CODE": "#ICRow48",
      "COUNTRY_DESC": "Cook Islands"
    },
    {
      "COUNTRY_CODE": "#ICRow49",
      "COUNTRY_DESC": "Colombia"
    },
    {
      "COUNTRY_CODE": "#ICRow50",
      "COUNTRY_DESC": "Comoros"
    },
    {
      "COUNTRY_CODE": "#ICRow51",
      "COUNTRY_DESC": "Cape Verde"
    },
    {
      "COUNTRY_CODE": "#ICRow52",
      "COUNTRY_DESC": "Costa Rica"
    },
    {
      "COUNTRY_CODE": "#ICRow53",
      "COUNTRY_DESC": "Cuba"
    },
    {
      "COUNTRY_CODE": "#ICRow54",
      "COUNTRY_DESC": "Christmas Island"
    },
    {
      "COUNTRY_CODE": "#ICRow55",
      "COUNTRY_DESC": "Cayman Islands"
    },
    {
      "COUNTRY_CODE": "#ICRow56",
      "COUNTRY_DESC": "Cyprus"
    },
    {
      "COUNTRY_CODE": "#ICRow57",
      "COUNTRY_DESC": "Czech Republic"
    },
    {
      "COUNTRY_CODE": "#ICRow58",
      "COUNTRY_DESC": "Germany"
    },
    {
      "COUNTRY_CODE": "#ICRow59",
      "COUNTRY_DESC": "Djibouti"
    },
    {
      "COUNTRY_CODE": "#ICRow60",
      "COUNTRY_DESC": "Dominica"
    },
    {
      "COUNTRY_CODE": "#ICRow61",
      "COUNTRY_DESC": "Denmark"
    },
    {
      "COUNTRY_CODE": "#ICRow62",
      "COUNTRY_DESC": "Dominican Republic"
    },
    {
      "COUNTRY_CODE": "#ICRow63",
      "COUNTRY_DESC": "Algeria"
    },
    {
      "COUNTRY_CODE": "#ICRow64",
      "COUNTRY_DESC": "Ecuador"
    },
    {
      "COUNTRY_CODE": "#ICRow65",
      "COUNTRY_DESC": "Egypt"
    },
    {
      "COUNTRY_CODE": "#ICRow66",
      "COUNTRY_DESC": "England"
    },
    {
      "COUNTRY_CODE": "#ICRow67",
      "COUNTRY_DESC": "Eritrea"
    },
    {
      "COUNTRY_CODE": "#ICRow68",
      "COUNTRY_DESC": "Western Sahara"
    },
    {
      "COUNTRY_CODE": "#ICRow69",
      "COUNTRY_DESC": "Spain"
    },
    {
      "COUNTRY_CODE": "#ICRow70",
      "COUNTRY_DESC": "Estonia"
    },
    {
      "COUNTRY_CODE": "#ICRow71",
      "COUNTRY_DESC": "Ethiopia"
    },
    {
      "COUNTRY_CODE": "#ICRow72",
      "COUNTRY_DESC": "Finland"
    },
    {
      "COUNTRY_CODE": "#ICRow73",
      "COUNTRY_DESC": "Fiji"
    },
    {
      "COUNTRY_CODE": "#ICRow74",
      "COUNTRY_DESC": "Falkland Islands (Malvinas)"
    },
    {
      "COUNTRY_CODE": "#ICRow75",
      "COUNTRY_DESC": "France"
    },
    {
      "COUNTRY_CODE": "#ICRow76",
      "COUNTRY_DESC": "Faroe Islands"
    },
    {
      "COUNTRY_CODE": "#ICRow77",
      "COUNTRY_DESC": "Micronesia, Federated States"
    },
    {
      "COUNTRY_CODE": "#ICRow78",
      "COUNTRY_DESC": "Gabon"
    },
    {
      "COUNTRY_CODE": "#ICRow79",
      "COUNTRY_DESC": "United Kingdom"
    },
    {
      "COUNTRY_CODE": "#ICRow80",
      "COUNTRY_DESC": "Georgia"
    },
    {
      "COUNTRY_CODE": "#ICRow81",
      "COUNTRY_DESC": "Guernsey"
    },
    {
      "COUNTRY_CODE": "#ICRow82",
      "COUNTRY_DESC": "Ghana"
    },
    {
      "COUNTRY_CODE": "#ICRow83",
      "COUNTRY_DESC": "Gibraltar"
    },
    {
      "COUNTRY_CODE": "#ICRow84",
      "COUNTRY_DESC": "Guinea"
    },
    {
      "COUNTRY_CODE": "#ICRow85",
      "COUNTRY_DESC": "Guadeloupe"
    },
    {
      "COUNTRY_CODE": "#ICRow86",
      "COUNTRY_DESC": "Gambia"
    },
    {
      "COUNTRY_CODE": "#ICRow87",
      "COUNTRY_DESC": "Guinea-Bissau"
    },
    {
      "COUNTRY_CODE": "#ICRow88",
      "COUNTRY_DESC": "Equatorial Guinea"
    },
    {
      "COUNTRY_CODE": "#ICRow89",
      "COUNTRY_DESC": "Greece"
    },
    {
      "COUNTRY_CODE": "#ICRow90",
      "COUNTRY_DESC": "Grenada"
    },
    {
      "COUNTRY_CODE": "#ICRow91",
      "COUNTRY_DESC": "Greenland"
    },
    {
      "COUNTRY_CODE": "#ICRow92",
      "COUNTRY_DESC": "Guatemala"
    },
    {
      "COUNTRY_CODE": "#ICRow93",
      "COUNTRY_DESC": "French Guiana"
    },
    {
      "COUNTRY_CODE": "#ICRow94",
      "COUNTRY_DESC": "Guam"
    },
    {
      "COUNTRY_CODE": "#ICRow95",
      "COUNTRY_DESC": "Guyana"
    },
    {
      "COUNTRY_CODE": "#ICRow96",
      "COUNTRY_DESC": "Hong Kong"
    },
    {
      "COUNTRY_CODE": "#ICRow97",
      "COUNTRY_DESC": "Heard and McDonald Islands"
    },
    {
      "COUNTRY_CODE": "#ICRow98",
      "COUNTRY_DESC": "Honduras"
    },
    {
      "COUNTRY_CODE": "#ICRow99",
      "COUNTRY_DESC": "Croatia"
    },
    {
      "COUNTRY_CODE": "#ICRow100",
      "COUNTRY_DESC": "Haiti"
    },
    {
      "COUNTRY_CODE": "#ICRow101",
      "COUNTRY_DESC": "Hungary"
    },
    {
      "COUNTRY_CODE": "#ICRow102",
      "COUNTRY_DESC": "Indonesia"
    },
    {
      "COUNTRY_CODE": "#ICRow103",
      "COUNTRY_DESC": "Isle of Man"
    },
    {
      "COUNTRY_CODE": "#ICRow104",
      "COUNTRY_DESC": "India"
    },
    {
      "COUNTRY_CODE": "#ICRow105",
      "COUNTRY_DESC": "British Indian Ocean Territory"
    },
    {
      "COUNTRY_CODE": "#ICRow106",
      "COUNTRY_DESC": "Ireland"
    },
    {
      "COUNTRY_CODE": "#ICRow107",
      "COUNTRY_DESC": "Iran (Islamic Republic Of)"
    },
    {
      "COUNTRY_CODE": "#ICRow108",
      "COUNTRY_DESC": "Iraq"
    },
    {
      "COUNTRY_CODE": "#ICRow109",
      "COUNTRY_DESC": "Iceland"
    },
    {
      "COUNTRY_CODE": "#ICRow110",
      "COUNTRY_DESC": "Israel"
    },
    {
      "COUNTRY_CODE": "#ICRow111",
      "COUNTRY_DESC": "Italy"
    },
    {
      "COUNTRY_CODE": "#ICRow112",
      "COUNTRY_DESC": "Jamaica"
    },
    {
      "COUNTRY_CODE": "#ICRow113",
      "COUNTRY_DESC": "Jersey"
    },
    {
      "COUNTRY_CODE": "#ICRow114",
      "COUNTRY_DESC": "Jordan"
    },
    {
      "COUNTRY_CODE": "#ICRow115",
      "COUNTRY_DESC": "Japan"
    },
    {
      "COUNTRY_CODE": "#ICRow116",
      "COUNTRY_DESC": "Kazakhstan"
    },
    {
      "COUNTRY_CODE": "#ICRow117",
      "COUNTRY_DESC": "Kenya"
    },
    {
      "COUNTRY_CODE": "#ICRow118",
      "COUNTRY_DESC": "Kyrgyzstan"
    },
    {
      "COUNTRY_CODE": "#ICRow119",
      "COUNTRY_DESC": "Cambodia"
    },
    {
      "COUNTRY_CODE": "#ICRow120",
      "COUNTRY_DESC": "Kiribati"
    },
    {
      "COUNTRY_CODE": "#ICRow121",
      "COUNTRY_DESC": "Saint Kitts and Nevis"
    },
    {
      "COUNTRY_CODE": "#ICRow122",
      "COUNTRY_DESC": "Korea, Republic of"
    },
    {
      "COUNTRY_CODE": "#ICRow123",
      "COUNTRY_DESC": "Kosovo"
    },
    {
      "COUNTRY_CODE": "#ICRow124",
      "COUNTRY_DESC": "Kuwait"
    },
    {
      "COUNTRY_CODE": "#ICRow125",
      "COUNTRY_DESC": "Lao People's Democratic Rep"
    },
    {
      "COUNTRY_CODE": "#ICRow126",
      "COUNTRY_DESC": "Lebanon"
    },
    {
      "COUNTRY_CODE": "#ICRow127",
      "COUNTRY_DESC": "Liberia"
    },
    {
      "COUNTRY_CODE": "#ICRow128",
      "COUNTRY_DESC": "Libyan Arab Jamahiriya"
    },
    {
      "COUNTRY_CODE": "#ICRow129",
      "COUNTRY_DESC": "Saint Lucia"
    },
    {
      "COUNTRY_CODE": "#ICRow130",
      "COUNTRY_DESC": "Liechtenstein"
    },
    {
      "COUNTRY_CODE": "#ICRow131",
      "COUNTRY_DESC": "Sri Lanka"
    },
    {
      "COUNTRY_CODE": "#ICRow132",
      "COUNTRY_DESC": "Lesotho"
    },
    {
      "COUNTRY_CODE": "#ICRow133",
      "COUNTRY_DESC": "Lithuania"
    },
    {
      "COUNTRY_CODE": "#ICRow134",
      "COUNTRY_DESC": "Luxembourg"
    },
    {
      "COUNTRY_CODE": "#ICRow135",
      "COUNTRY_DESC": "Latvia"
    },
    {
      "COUNTRY_CODE": "#ICRow136",
      "COUNTRY_DESC": "Macao"
    },
    {
      "COUNTRY_CODE": "#ICRow137",
      "COUNTRY_DESC": "Saint Martin"
    },
    {
      "COUNTRY_CODE": "#ICRow138",
      "COUNTRY_DESC": "Morocco"
    },
    {
      "COUNTRY_CODE": "#ICRow139",
      "COUNTRY_DESC": "Monaco"
    },
    {
      "COUNTRY_CODE": "#ICRow140",
      "COUNTRY_DESC": "Moldova, Republic of"
    },
    {
      "COUNTRY_CODE": "#ICRow141",
      "COUNTRY_DESC": "Madagascar"
    },
    {
      "COUNTRY_CODE": "#ICRow142",
      "COUNTRY_DESC": "Maldives"
    },
    {
      "COUNTRY_CODE": "#ICRow143",
      "COUNTRY_DESC": "Mexico"
    },
    {
      "COUNTRY_CODE": "#ICRow144",
      "COUNTRY_DESC": "Marshall Islands"
    },
    {
      "COUNTRY_CODE": "#ICRow145",
      "COUNTRY_DESC": "Fmr Yugoslav Rep of Macedonia"
    },
    {
      "COUNTRY_CODE": "#ICRow146",
      "COUNTRY_DESC": "Mali"
    },
    {
      "COUNTRY_CODE": "#ICRow147",
      "COUNTRY_DESC": "Malta"
    },
    {
      "COUNTRY_CODE": "#ICRow148",
      "COUNTRY_DESC": "Myanmar"
    },
    {
      "COUNTRY_CODE": "#ICRow149",
      "COUNTRY_DESC": "Republic of Montenegro"
    },
    {
      "COUNTRY_CODE": "#ICRow150",
      "COUNTRY_DESC": "Mongolia"
    },
    {
      "COUNTRY_CODE": "#ICRow151",
      "COUNTRY_DESC": "Northern Mariana Islands"
    },
    {
      "COUNTRY_CODE": "#ICRow152",
      "COUNTRY_DESC": "Mozambique"
    },
    {
      "COUNTRY_CODE": "#ICRow153",
      "COUNTRY_DESC": "Mauritania"
    },
    {
      "COUNTRY_CODE": "#ICRow154",
      "COUNTRY_DESC": "Montserrat"
    },
    {
      "COUNTRY_CODE": "#ICRow155",
      "COUNTRY_DESC": "Martinique"
    },
    {
      "COUNTRY_CODE": "#ICRow156",
      "COUNTRY_DESC": "Mauritius"
    },
    {
      "COUNTRY_CODE": "#ICRow157",
      "COUNTRY_DESC": "Malawi"
    },
    {
      "COUNTRY_CODE": "#ICRow158",
      "COUNTRY_DESC": "Malaysia"
    },
    {
      "COUNTRY_CODE": "#ICRow159",
      "COUNTRY_DESC": "Mayotte"
    },
    {
      "COUNTRY_CODE": "#ICRow160",
      "COUNTRY_DESC": "Namibia"
    },
    {
      "COUNTRY_CODE": "#ICRow161",
      "COUNTRY_DESC": "Not Applicable"
    },
    {
      "COUNTRY_CODE": "#ICRow162",
      "COUNTRY_DESC": "New Caledonia"
    },
    {
      "COUNTRY_CODE": "#ICRow163",
      "COUNTRY_DESC": "Niger"
    },
    {
      "COUNTRY_CODE": "#ICRow164",
      "COUNTRY_DESC": "Norfolk Island"
    },
    {
      "COUNTRY_CODE": "#ICRow165",
      "COUNTRY_DESC": "Nigeria"
    },
    {
      "COUNTRY_CODE": "#ICRow166",
      "COUNTRY_DESC": "Nicaragua"
    },
    {
      "COUNTRY_CODE": "#ICRow167",
      "COUNTRY_DESC": "Northern Ireland"
    },
    {
      "COUNTRY_CODE": "#ICRow168",
      "COUNTRY_DESC": "Niue"
    },
    {
      "COUNTRY_CODE": "#ICRow169",
      "COUNTRY_DESC": "Netherlands"
    },
    {
      "COUNTRY_CODE": "#ICRow170",
      "COUNTRY_DESC": "Norway"
    },
    {
      "COUNTRY_CODE": "#ICRow171",
      "COUNTRY_DESC": "Nepal"
    },
    {
      "COUNTRY_CODE": "#ICRow172",
      "COUNTRY_DESC": "Not Reported"
    },
    {
      "COUNTRY_CODE": "#ICRow173",
      "COUNTRY_DESC": "Nauru"
    },
    {
      "COUNTRY_CODE": "#ICRow174",
      "COUNTRY_DESC": "New Zealand"
    },
    {
      "COUNTRY_CODE": "#ICRow175",
      "COUNTRY_DESC": "Oman"
    },
    {
      "COUNTRY_CODE": "#ICRow176",
      "COUNTRY_DESC": "Pakistan"
    },
    {
      "COUNTRY_CODE": "#ICRow177",
      "COUNTRY_DESC": "Panama"
    },
    {
      "COUNTRY_CODE": "#ICRow178",
      "COUNTRY_DESC": "Pitcairn"
    },
    {
      "COUNTRY_CODE": "#ICRow179",
      "COUNTRY_DESC": "Peru"
    },
    {
      "COUNTRY_CODE": "#ICRow180",
      "COUNTRY_DESC": "Philippines"
    },
    {
      "COUNTRY_CODE": "#ICRow181",
      "COUNTRY_DESC": "Palau"
    },
    {
      "COUNTRY_CODE": "#ICRow182",
      "COUNTRY_DESC": "Papua New Guinea"
    },
    {
      "COUNTRY_CODE": "#ICRow183",
      "COUNTRY_DESC": "Poland"
    },
    {
      "COUNTRY_CODE": "#ICRow184",
      "COUNTRY_DESC": "Puerto Rico"
    },
    {
      "COUNTRY_CODE": "#ICRow185",
      "COUNTRY_DESC": "Korea, Democratic People's Rep"
    },
    {
      "COUNTRY_CODE": "#ICRow186",
      "COUNTRY_DESC": "Portugal"
    },
    {
      "COUNTRY_CODE": "#ICRow187",
      "COUNTRY_DESC": "Paraguay"
    },
    {
      "COUNTRY_CODE": "#ICRow188",
      "COUNTRY_DESC": "Palestinian Territory, Occupie"
    },
    {
      "COUNTRY_CODE": "#ICRow189",
      "COUNTRY_DESC": "French Polynesia"
    },
    {
      "COUNTRY_CODE": "#ICRow190",
      "COUNTRY_DESC": "Qatar"
    },
    {
      "COUNTRY_CODE": "#ICRow191",
      "COUNTRY_DESC": "Reunion"
    },
    {
      "COUNTRY_CODE": "#ICRow192",
      "COUNTRY_DESC": "Romania"
    },
    {
      "COUNTRY_CODE": "#ICRow193",
      "COUNTRY_DESC": "Russian Federation"
    },
    {
      "COUNTRY_CODE": "#ICRow194",
      "COUNTRY_DESC": "Rwanda"
    },
    {
      "COUNTRY_CODE": "#ICRow195",
      "COUNTRY_DESC": "Saudi Arabia"
    },
    {
      "COUNTRY_CODE": "#ICRow196",
      "COUNTRY_DESC": "Scotland"
    },
    {
      "COUNTRY_CODE": "#ICRow197",
      "COUNTRY_DESC": "Sudan"
    },
    {
      "COUNTRY_CODE": "#ICRow198",
      "COUNTRY_DESC": "Senegal"
    },
    {
      "COUNTRY_CODE": "#ICRow199",
      "COUNTRY_DESC": "Singapore"
    },
    {
      "COUNTRY_CODE": "#ICRow200",
      "COUNTRY_DESC": "Sth Georgia & Sth Sandwich Is"
    },
    {
      "COUNTRY_CODE": "#ICRow201",
      "COUNTRY_DESC": "Saint Helena"
    },
    {
      "COUNTRY_CODE": "#ICRow202",
      "COUNTRY_DESC": "Svalbard and Jan Mayen"
    },
    {
      "COUNTRY_CODE": "#ICRow203",
      "COUNTRY_DESC": "Solomon Islands"
    },
    {
      "COUNTRY_CODE": "#ICRow204",
      "COUNTRY_DESC": "Sierra Leone"
    },
    {
      "COUNTRY_CODE": "#ICRow205",
      "COUNTRY_DESC": "El Salvador"
    },
    {
      "COUNTRY_CODE": "#ICRow206",
      "COUNTRY_DESC": "San Marino"
    },
    {
      "COUNTRY_CODE": "#ICRow207",
      "COUNTRY_DESC": "Somalia"
    },
    {
      "COUNTRY_CODE": "#ICRow208",
      "COUNTRY_DESC": "Saint Pierre and Miquelon"
    },
    {
      "COUNTRY_CODE": "#ICRow209",
      "COUNTRY_DESC": "Republic of Serbia"
    },
    {
      "COUNTRY_CODE": "#ICRow210",
      "COUNTRY_DESC": "Sao Tome and Principe"
    },
    {
      "COUNTRY_CODE": "#ICRow211",
      "COUNTRY_DESC": "Suriname"
    },
    {
      "COUNTRY_CODE": "#ICRow212",
      "COUNTRY_DESC": "Slovakia"
    },
    {
      "COUNTRY_CODE": "#ICRow213",
      "COUNTRY_DESC": "Slovenia"
    },
    {
      "COUNTRY_CODE": "#ICRow214",
      "COUNTRY_DESC": "Sweden"
    },
    {
      "COUNTRY_CODE": "#ICRow215",
      "COUNTRY_DESC": "Swaziland"
    },
    {
      "COUNTRY_CODE": "#ICRow216",
      "COUNTRY_DESC": "Seychelles"
    },
    {
      "COUNTRY_CODE": "#ICRow217",
      "COUNTRY_DESC": "Syrian Arab Republic"
    },
    {
      "COUNTRY_CODE": "#ICRow218",
      "COUNTRY_DESC": "Turks and Caicos Islands"
    },
    {
      "COUNTRY_CODE": "#ICRow219",
      "COUNTRY_DESC": "Chad"
    },
    {
      "COUNTRY_CODE": "#ICRow220",
      "COUNTRY_DESC": "Togo"
    },
    {
      "COUNTRY_CODE": "#ICRow221",
      "COUNTRY_DESC": "Thailand"
    },
    {
      "COUNTRY_CODE": "#ICRow222",
      "COUNTRY_DESC": "Tajikistan"
    },
    {
      "COUNTRY_CODE": "#ICRow223",
      "COUNTRY_DESC": "Tokelau"
    },
    {
      "COUNTRY_CODE": "#ICRow224",
      "COUNTRY_DESC": "Turkmenistan"
    },
    {
      "COUNTRY_CODE": "#ICRow225",
      "COUNTRY_DESC": "East Timor"
    },
    {
      "COUNTRY_CODE": "#ICRow226",
      "COUNTRY_DESC": "Tonga"
    },
    {
      "COUNTRY_CODE": "#ICRow227",
      "COUNTRY_DESC": "Trinidad and Tobago"
    },
    {
      "COUNTRY_CODE": "#ICRow228",
      "COUNTRY_DESC": "Tunisia"
    },
    {
      "COUNTRY_CODE": "#ICRow229",
      "COUNTRY_DESC": "Turkey"
    },
    {
      "COUNTRY_CODE": "#ICRow230",
      "COUNTRY_DESC": "Tuvalu"
    },
    {
      "COUNTRY_CODE": "#ICRow231",
      "COUNTRY_DESC": "Taiwan, Province of China"
    },
    {
      "COUNTRY_CODE": "#ICRow232",
      "COUNTRY_DESC": "Tanzania, United Republic of"
    },
    {
      "COUNTRY_CODE": "#ICRow233",
      "COUNTRY_DESC": "Uganda"
    },
    {
      "COUNTRY_CODE": "#ICRow234",
      "COUNTRY_DESC": "Ukraine"
    },
    {
      "COUNTRY_CODE": "#ICRow235",
      "COUNTRY_DESC": "US Minor Outlying Islands"
    },
    {
      "COUNTRY_CODE": "#ICRow236",
      "COUNTRY_DESC": "Uruguay"
    },
    {
      "COUNTRY_CODE": "#ICRow237",
      "COUNTRY_DESC": "United States"
    },
    {
      "COUNTRY_CODE": "#ICRow238",
      "COUNTRY_DESC": "Uzbekistan"
    },
    {
      "COUNTRY_CODE": "#ICRow239",
      "COUNTRY_DESC": "Holy See (Vatican City State)"
    },
    {
      "COUNTRY_CODE": "#ICRow240",
      "COUNTRY_DESC": "St Vincent and the Grenadines"
    },
    {
      "COUNTRY_CODE": "#ICRow241",
      "COUNTRY_DESC": "Venezuela"
    },
    {
      "COUNTRY_CODE": "#ICRow242",
      "COUNTRY_DESC": "Virgin Islands (British)"
    },
    {
      "COUNTRY_CODE": "#ICRow243",
      "COUNTRY_DESC": "Virgin Islands (U.S.)"
    },
    {
      "COUNTRY_CODE": "#ICRow244",
      "COUNTRY_DESC": "Viet Nam"
    },
    {
      "COUNTRY_CODE": "#ICRow245",
      "COUNTRY_DESC": "Vanuatu"
    },
    {
      "COUNTRY_CODE": "#ICRow246",
      "COUNTRY_DESC": "Wales"
    },
    {
      "COUNTRY_CODE": "#ICRow247",
      "COUNTRY_DESC": "Wallis and Futuna Islands"
    },
    {
      "COUNTRY_CODE": "#ICRow248",
      "COUNTRY_DESC": "Samoa"
    },
    {
      "COUNTRY_CODE": "#ICRow249",
      "COUNTRY_DESC": "Yemen"
    },
    {
      "COUNTRY_CODE": "#ICRow250",
      "COUNTRY_DESC": "Yugoslavia"
    },
    {
      "COUNTRY_CODE": "#ICRow251",
      "COUNTRY_DESC": "South Africa"
    },
    {
      "COUNTRY_CODE": "#ICRow252",
      "COUNTRY_DESC": "Zambia"
    },
    {
      "COUNTRY_CODE": "#ICRow253",
      "COUNTRY_DESC": "Zimbabwe"
    }
  ]
}