{
  "address": {
    "COUNTRY_DESC": "United Arab Emirates",
    "ADDRESS1": "UAE",
    "ADDRESS2": "",
    "ADDRESS3": "",
    "ADDRESS4": "",
    "CITY": "",
    "STATE_LABEL": "Emirate:",
    "POSTAL": "",
    "COUNTY": "",
    "STATES": 
    [
      {
        "STATE_CODE": "AAN",
        "STATE_DESC": "Al Ain"
      },
      {
        "STATE_CODE": "AJM",
        "STATE_DESC": "Ajman"
      },
      {
        "STATE_CODE": "AUH",
        "STATE_DESC": "Abu Dhabi"
      },
      {
        "STATE_CODE": "DXB",
        "STATE_DESC": "Dubai"
      },
      {
        "STATE_CODE": "FUJ",
        "STATE_DESC": "Fujairah"
      },
      {
        "STATE_CODE": "RAK",
        "STATE_DESC": "Ras Al Khaima"
      },
      {
        "STATE_CODE": "SHJ",
        "STATE_DESC": "Sharjah"
      },
      {
        "STATE_CODE": "UAQ",
        "STATE_DESC": "Umm Al Qain"
      }
    ]
  }
}