{
  "ADDRESSES": 
  [
    {
      "ADDRESS_TYPE": "Permanent",
      "ADDRESS": "123 Anywhere St \n Claremont, CA 91999",
      "ADDRESS_ID": "UPDATE$0"
    },
    {
      "ADDRESS_TYPE": "Mail",
      "ADDRESS": "123 Anywhere St \n Claremont, CA 91799",
      "ADDRESS_ID": "UPDATE$1"
    },
    {
      "ADDRESS_TYPE": "Work",
      "ADDRESS": "123 Anywhere St \n Claremont, CA 91799",
      "ADDRESS_ID": "UPDATE$2"
    },
    {
      "ADDRESS_TYPE": "Alumni",
      "ADDRESS": "123 Anywhere St \n Claremont, CA 91799",
      "ADDRESS_ID": "UPDATE$3"
    }
  ]
}