{
  "DETAILS": 
  [
    {
      "COUNTRY": "China",
      "ADDRESS1": "Room 101. Unit 1, Building A3,Cheng",
      "ADDRESS2": "Kai Guoji Xueyuan Dongjun,Xinjian",
      "ADDRESS3": "",
      "CITY": "Nanchang",
      "STATE": "",
      "COUNTY": "",
      "POSTAL": "330100"
    }
  ],
  "DATE": 
  [
    {
      "DATE": "08/23/2016"
    }
  ],
  "ADDRESS_TYPES": 
  [
  ]
}