{
  "DEMOGRAPHIC_INFORMATION": 
  [
    {
      "KEY": "ID",
      "VALUE": "045062"
    },
    {
      "KEY": "Gender",
      "VALUE": "Male"
    },
    {
      "KEY": "Date of Birth",
      "VALUE": "01/01/1985"
    },
    {
      "KEY": "Birth Country",
      "VALUE": "United States"
    },
    {
      "KEY": "Birth State",
      "VALUE": " "
    },
    {
      "KEY": "Marital Status",
      "VALUE": "Unknown"
    },
    {
      "KEY": "Military Status",
      "VALUE": "Not indicated"
    },
    {
      "KEY": "Country",
      "VALUE": "United States"
    }
  ],
  "NATIONAL_IDENTIFICATION": 
  [
    {
      "COUNTRY": "045062",
      "ID_TYPE": "",
      "NATIONAL_ID": ""
    },
    {
      "COUNTRY": "United States",
      "ID_TYPE": "SSN",
      "NATIONAL_ID": "222-22-2222"
    }
  ],
  "PHOTO": 
  [
    {
      "image": null
    }
  ],
  "PERSON_NAME": 
  [
    {
      "NAME": "Stuart Fermenick"
    }
  ],
  "ETNICITY": 
  [
    {
      "GROUP": "WHITE",
      "DESCRIPTION": "White/Caucasian",
      "PRIMARY": "Y"
    }
  ],
  "CITIZENSHIP": 
  [
    {
      "DESCRIPTION": "Citizen",
      "COUNTRY": "United States"
    }
  ],
  "DRIVERS_LICENSE": 
  [
    {
      "LICENSE_NUMBER": "BHY7123123",
      "COUNTRY": "United States",
      "STATE": "CA"
    }
  ],
  "VISA_PERMIT": 
  [
    {
      "TYPE": " ",
      "COUNTRY": " "
    }
  ]
}