{
  "psfinaid": 
  [
    {
      "AID_ID": "AID_YEAR_LINK_FLD$0",
      "AID_YEAR": "2017",
      "INSTITUTION": "Claremont Graduate University",
      "DESCRIPTION": "2016-2017"
    },
    {
      "AID_ID": "AID_YEAR_LINK_FLD$1",
      "AID_YEAR": "2016",
      "INSTITUTION": "Claremont Graduate University",
      "DESCRIPTION": "2015-2016"
    },
    {
      "AID_ID": "",
      "AID_YEAR": "",
      "INSTITUTION": "Claremont Graduate University",
      "DESCRIPTION": "No financial aid data available."
    }
  ]
}