{
    "generalinfo": [{
      "KEY": "dummyKey",
      "VALUE": "dummyValue"
    }],
    "contactinfo": [{
      "ACADEMIC_INSTITUTION": "XYZ",
      "ADMINISTRATIVE_FUNCTION": "XYZ function",
      "DUE_DATE": "XYZ due date"
    }],
    "detaileddesc": [{
      "DESCRIPTION": "XYZ Description"
    }]
}