{
  "currentdatetime": 
  [
    {
      "CURRENTDATE": "11-AUG-2016",
      "YESTERDAY": "10-AUG-2016"
    }
  ],
  "studentattendancereport": 
  [
    {
      "TERM_CODE": "201606",
      "CRN": "67552",
      "MEET_ID": 100734,
      "SUBJ": "CSPD",
      "CRSE": "100",
      "SEQ": "0",
      "PTRM_CODE": "Q",
      "TITLE": "TEST",
      "CAMPUS": "Gardner",
      "MON_DAY": "M",
      "TUE_DAY": "T",
      "WED_DAY": "W",
      "THU_DAY": "R",
      "FRI_DAY": "F",
      "SAT_DAY": "",
      "SUN_DAY": "",
      "SSRMEET_BEGIN_TIME": "1100",
      "START_TIME": "11:00 AM",
      "END_TIME": "03:00 PM",
      "PERCENTAGE": 5.26
    }
  ]
}