{
  "contactinformation": 
  [
    {
      "CONTACT_TYPE": "Home",
      "AREA_CODE": "603",
      "PHONE_NUMBER": "8783695"
    },
    {
      "CONTACT_TYPE": "Cell/Wireless Phone",
      "AREA_CODE": "603",
      "PHONE_NUMBER": "4651970"
    }
  ],
  "p_out": 
  [
    {
      "summary": 
      [
        {
          "ROLE": "STUDENT",
          "INFO_HEADER": "Student Information effective from Summer 2016 to The End of Time",
          "REGISTERED_FOR_TERM": "Yes",
          "FIRST_TERM_ATTENDED": "Summer 2015",
          "LAST_TERM_ATTENDED": "Spring 2016",
          "STATUS": "Active student",
          "RESIDENCE": "Reciprocity",
          "CITIZENSHIP": "United States Citizen",
          "STUDENT_TYPE": "Continuing Student",
          "CLASS": " ",
          "PRIMARY_ADVISOR": "Erin Flood ",
          "PRIMARY_ADVISOR_TYPE": "",
          "EXPECTED_GRAD_DATE": "Dec 24, 2017",
          "EXPECTED_GRAD_TERM": "",
          "GPA": "2.254",
          "CURRICULUM_HEADING": "Current Program",
          "CURRENT_PROGRAM": "Associate in Science",
          "LEVEL": "Undergraduate",
          "PROGRAM": "BA Business Administration",
          "COLLEGE": "Credit",
          "CAMPUS": "",
          "MAJOR": "BA Business Administration"
        }
      ]
    }
  ],
  "bioinformation": 
  [
    {
      "BANNER_ID": "00183401",
      "FIRST_NAME": "Ashley",
      "MIDDLE_NAME": "E",
      "LAST_NAME": "McHugh",
      "DOB": "08-JUL-1997",
      "AGE": 19,
      "GENDER": "Female"
    }
  ],
  "registeredterms": 
  [
    {
      "TERM_CODE": "201609",
      "TERM_DESC": "Fall 2016",
      "CRN": "91845",
      "DETAILS": "ACC101B",
      "TITLE": "Principles Of Accounting I",
      "REGISTRATION_STATUS": "Registered via Web",
      "REGISTERED_DATE": "17-MAY-2016",
      "CREDIT_HOURS": 3
    },
    {
      "TERM_CODE": "201609",
      "TERM_DESC": "Fall 2016",
      "CRN": "91872",
      "DETAILS": "ENG102W1G",
      "TITLE": "College Writing II",
      "REGISTRATION_STATUS": "Registered via Web",
      "REGISTERED_DATE": "17-MAY-2016",
      "CREDIT_HOURS": 3
    },
    {
      "TERM_CODE": "201609",
      "TERM_DESC": "Fall 2016",
      "CRN": "92088",
      "DETAILS": "MAT096AC",
      "TITLE": "Intermediate Algebra",
      "REGISTRATION_STATUS": "Registered via Web",
      "REGISTERED_DATE": "17-MAY-2016",
      "CREDIT_HOURS": 4
    },
    {
      "TERM_CODE": "201609",
      "TERM_DESC": "Fall 2016",
      "CRN": "92282",
      "DETAILS": "CIS127H",
      "TITLE": "Computer Technologies",
      "REGISTRATION_STATUS": "Registered via Web",
      "REGISTERED_DATE": "17-MAY-2016",
      "CREDIT_HOURS": 3
    },
    {
      "TERM_CODE": "201609",
      "TERM_DESC": "Fall 2016",
      "CRN": "92716",
      "DETAILS": "MGT210E",
      "TITLE": "Principles Of Management",
      "REGISTRATION_STATUS": "Registered via Web",
      "REGISTERED_DATE": "17-MAY-2016",
      "CREDIT_HOURS": 3
    }
  ],
  "emailinformation": 
  [
    {
      "EMAIL_TYPE": "Home Email Address",
      "EMAIL_ADDRESS": "ashleymchug123@gmail.com"
    },
    {
      "EMAIL_TYPE": "MWCC Student Email",
      "EMAIL_ADDRESS": "amchugh1@mwcc.edu"
    }
  ]
}