{
  "getpaystubsummary": 
  [
    {
      "PAY_PERIOD_START": "02-MAY-2011",
      "PAY_PERIOD_END": "15-MAY-2011",
      "PAY_DATE": "26-MAY-2011",
      "PAY_DATE_PARAM": "2011-05-26",
      "GROSS_PAY": "                   $93.75",
      "NET_PAY": "                   $92.45",
      "PICT": "BW",
      "PAYNO": 11,
      "SEQNO": 0,
      "PHRHIST_TYPE_IND": "C",
      "PHRHIST_ADJS_SEQ_NO": "",
      "PHRHIST_ADJS_DATE": "",
      "PHRDOCM_YEAR": "2011",
      "PHRHIST_ADJ_BY_SEQ_NO": ""
    },
    {
      "PAY_PERIOD_START": "18-APR-2011",
      "PAY_PERIOD_END": "01-MAY-2011",
      "PAY_DATE": "12-MAY-2011",
      "PAY_DATE_PARAM": "2011-05-12",
      "GROSS_PAY": "                  $232.50",
      "NET_PAY": "                  $217.33",
      "PICT": "BW",
      "PAYNO": 10,
      "SEQNO": 0,
      "PHRHIST_TYPE_IND": "C",
      "PHRHIST_ADJS_SEQ_NO": "",
      "PHRHIST_ADJS_DATE": "",
      "PHRDOCM_YEAR": "2011",
      "PHRHIST_ADJ_BY_SEQ_NO": ""
    },
    {
      "PAY_PERIOD_START": "04-APR-2011",
      "PAY_PERIOD_END": "17-APR-2011",
      "PAY_DATE": "28-APR-2011",
      "PAY_DATE_PARAM": "2011-04-28",
      "GROSS_PAY": "                  $273.75",
      "NET_PAY": "                  $254.45",
      "PICT": "BW",
      "PAYNO": 9,
      "SEQNO": 0,
      "PHRHIST_TYPE_IND": "C",
      "PHRHIST_ADJS_SEQ_NO": "",
      "PHRHIST_ADJS_DATE": "",
      "PHRDOCM_YEAR": "2011",
      "PHRHIST_ADJ_BY_SEQ_NO": ""
    },
    {
      "PAY_PERIOD_START": "21-MAR-2011",
      "PAY_PERIOD_END": "03-APR-2011",
      "PAY_DATE": "14-APR-2011",
      "PAY_DATE_PARAM": "2011-04-14",
      "GROSS_PAY": "                  $300.00",
      "NET_PAY": "                  $278.08",
      "PICT": "BW",
      "PAYNO": 8,
      "SEQNO": 0,
      "PHRHIST_TYPE_IND": "C",
      "PHRHIST_ADJS_SEQ_NO": "",
      "PHRHIST_ADJS_DATE": "",
      "PHRDOCM_YEAR": "2011",
      "PHRHIST_ADJ_BY_SEQ_NO": ""
    },
    {
      "PAY_PERIOD_START": "07-MAR-2011",
      "PAY_PERIOD_END": "20-MAR-2011",
      "PAY_DATE": "31-MAR-2011",
      "PAY_DATE_PARAM": "2011-03-31",
      "GROSS_PAY": "                  $300.00",
      "NET_PAY": "                  $278.08",
      "PICT": "BW",
      "PAYNO": 7,
      "SEQNO": 0,
      "PHRHIST_TYPE_IND": "C",
      "PHRHIST_ADJS_SEQ_NO": "",
      "PHRHIST_ADJS_DATE": "",
      "PHRDOCM_YEAR": "2011",
      "PHRHIST_ADJ_BY_SEQ_NO": ""
    },
    {
      "PAY_PERIOD_START": "21-FEB-2011",
      "PAY_PERIOD_END": "06-MAR-2011",
      "PAY_DATE": "17-MAR-2011",
      "PAY_DATE_PARAM": "2011-03-17",
      "GROSS_PAY": "                  $300.00",
      "NET_PAY": "                  $278.08",
      "PICT": "BW",
      "PAYNO": 6,
      "SEQNO": 0,
      "PHRHIST_TYPE_IND": "C",
      "PHRHIST_ADJS_SEQ_NO": "",
      "PHRHIST_ADJS_DATE": "",
      "PHRDOCM_YEAR": "2011",
      "PHRHIST_ADJ_BY_SEQ_NO": ""
    },
    {
      "PAY_PERIOD_START": "07-FEB-2011",
      "PAY_PERIOD_END": "20-FEB-2011",
      "PAY_DATE": "03-MAR-2011",
      "PAY_DATE_PARAM": "2011-03-03",
      "GROSS_PAY": "                  $300.00",
      "NET_PAY": "                  $278.08",
      "PICT": "BW",
      "PAYNO": 5,
      "SEQNO": 0,
      "PHRHIST_TYPE_IND": "C",
      "PHRHIST_ADJS_SEQ_NO": "",
      "PHRHIST_ADJS_DATE": "",
      "PHRDOCM_YEAR": "2011",
      "PHRHIST_ADJ_BY_SEQ_NO": ""
    },
    {
      "PAY_PERIOD_START": "24-JAN-2011",
      "PAY_PERIOD_END": "06-FEB-2011",
      "PAY_DATE": "18-FEB-2011",
      "PAY_DATE_PARAM": "2011-02-18",
      "GROSS_PAY": "                  $108.75",
      "NET_PAY": "                  $105.95",
      "PICT": "BW",
      "PAYNO": 4,
      "SEQNO": 1,
      "PHRHIST_TYPE_IND": "M",
      "PHRHIST_ADJS_SEQ_NO": "",
      "PHRHIST_ADJS_DATE": "",
      "PHRDOCM_YEAR": "2011",
      "PHRHIST_ADJ_BY_SEQ_NO": ""
    },
    {
      "PAY_PERIOD_START": "27-DEC-2010",
      "PAY_PERIOD_END": "09-JAN-2011",
      "PAY_DATE": "21-JAN-2011",
      "PAY_DATE_PARAM": "2011-01-21",
      "GROSS_PAY": "                  $206.25",
      "NET_PAY": "                  $206.25",
      "PICT": "BW",
      "PAYNO": 2,
      "SEQNO": 1,
      "PHRHIST_TYPE_IND": "M",
      "PHRHIST_ADJS_SEQ_NO": "",
      "PHRHIST_ADJS_DATE": "",
      "PHRDOCM_YEAR": "2011",
      "PHRHIST_ADJ_BY_SEQ_NO": ""
    }
  ]
}