{
  "currentdatetime": 
  [
    {
      "CURRENTDATE": "11-AUG-2016 10:50:25"
    }
  ],
  "myschedulefortoday": 
  [
    {
      "TERM_CODE": "201606",
      "PIDM": 222802,
      "CRN": "67552",
      "MEET_ID": 100734,
      "SUBJ": "CSPD",
      "CRSE": "100",
      "SEQ": "0",
      "PTRM_CODE": "Q",
      "TITLE": "TEST",
      "STVCAMP_DESC": "Gardner",
      "SFRSTCR_CREDIT_HR": 0,
      "SFRSTCR_LEVL_CODE": "07",
      "MON_DAY": "M",
      "TUE_DAY": "T",
      "WED_DAY": "W",
      "THU_DAY": "R",
      "FRI_DAY": "F",
      "SAT_DAY": "",
      "SUN_DAY": "",
      "START_DATE": "10-JUN-2016",
      "END_DATE": "01-SEP-2016",
      "START_TIME": "11:00 AM",
      "END_TIME": "03:00 PM",
      "MINUTES": 240,
      "BLDG_CODE": "MAIN",
      "BUILDING": "Gardner Academic Building",
      "ROOM_CODE": "003-006",
      "MTYP_CODE": "CLAS"
    }
  ]
}