 {
    "termswithaccountsummary": [{
      "TERM_CODE": "201609",
      "DESCRIPTION": "Fall 2016"
    }, {
      "TERM_CODE": "201601",
      "DESCRIPTION": "Spring 2016"
    }, {
      "TERM_CODE": "201509",
      "DESCRIPTION": "Fall 2015"
    }, {
      "TERM_CODE": "201506",
      "DESCRIPTION": "Summer 2015"
    }, {
      "TERM_CODE": "201409",
      "DESCRIPTION": "Fall 2014"
    }, {
      "TERM_CODE": "201109",
      "DESCRIPTION": "Fall 2011"
    }, {
      "TERM_CODE": "200906",
      "DESCRIPTION": "Summer 2009"
    }]
  }