{
  "p_out": 
  [
    {
      "summary": 
      [
        {
          "course": {
            "coursetitle": "TEST",
            "crn": "67552",
            "subjectcode": "CSPD",
            "crsenumber": "100",
            "seqno": "0",
            "schedulecode": "U",
            "duration": "10-JUN-2016 - 01-SEP-2016",
            "status": "Active"
          },
          "enrollment": 
          [
            {
              "title": "Enrollment",
              "max": "0",
              "actual": "1",
              "rem": "-1"
            },
            {
              "title": "Cross List",
              "max": "0",
              "actual": "0",
              "rem": "0"
            }
          ],
          "summclasslist": 
          [
            {
              "recno": "1",
              "studentname": "Forest, Rebecca L.",
              "confidential": "N",
              "deadinfo": "N",
              "spridenid": "00153021",
              "regstatus": "**Registered**",
              "level": "Non-Credit",
              "credits": "    0.000",
              "gradedetail": "",
              "email": "r_forest@mwcc.edu"
            }
          ]
        }
      ]
    }
  ]
}