{
  "FINAID_TERMS": 
  [
    {
      "ID": "17/S2",
      "DESC": "17/S2 Summer II 2017"
    },
    {
      "ID": "17/S1",
      "DESC": "17/S1 Summer I 2017"
    },
    {
      "ID": "17/SP",
      "DESC": "17/SP Spring Semester 2017"
    },
    {
      "ID": "16/FA",
      "DESC": "16/FA Fall Semester 2016"
    },
    {
      "ID": "16/S2",
      "DESC": "16/S2 Summer II 2016"
    },
    {
      "ID": "16/S1",
      "DESC": "16/S1 Summer I 2016"
    },
    {
      "ID": "16/SP",
      "DESC": "16/SP Spring Semester 2016"
    },
    {
      "ID": "15/FA",
      "DESC": "15/FA Fall Semester 2015"
    }
  ]
}