{
  "BENEFITS_DEDUCTIONS": 
  [
    {
      "TITLE": "Family AD&D 100 NTS",
      "EMPLOYER_COST": "",
      "EMPLOYEE_COST": "36.00"
    },
    {
      "TITLE": "Dental Es TS",
      "EMPLOYER_COST": "396.00",
      "EMPLOYEE_COST": "396.00"
    },
    {
      "TITLE": "Basic Lt Disability",
      "EMPLOYER_COST": "43.20",
      "EMPLOYEE_COST": "0.00"
    },
    {
      "TITLE": "U A Foundation",
      "EMPLOYER_COST": "",
      "EMPLOYEE_COST": "0.00"
    },
    {
      "TITLE": "Uapb Fitness Center",
      "EMPLOYER_COST": "",
      "EMPLOYEE_COST": "0.00"
    },
    {
      "TITLE": "UAPB Athletic Fund",
      "EMPLOYER_COST": "",
      "EMPLOYEE_COST": "0.00"
    },
    {
      "TITLE": "Basic Life Insurance",
      "EMPLOYER_COST": "84.00",
      "EMPLOYEE_COST": "0.00"
    },
    {
      "TITLE": "2X Optional Life",
      "EMPLOYER_COST": "",
      "EMPLOYEE_COST": "788.64"
    },
    {
      "TITLE": "Optional Ltd",
      "EMPLOYER_COST": "",
      "EMPLOYEE_COST": "195.88"
    },
    {
      "TITLE": "Met Life Critical Care NTS",
      "EMPLOYER_COST": "",
      "EMPLOYEE_COST": "958.80"
    },
    {
      "TITLE": "Med/Pos Ee Ts",
      "EMPLOYER_COST": "3,563.16",
      "EMPLOYEE_COST": "1,918.68"
    },
    {
      "TITLE": "Dependent Life 10000",
      "EMPLOYER_COST": "",
      "EMPLOYEE_COST": "32.64"
    },
    {
      "TITLE": "UAPB TIAA TS",
      "EMPLOYER_COST": "6,167.70",
      "EMPLOYEE_COST": "6,167.70"
    },
    {
      "TITLE": "Ar State Emp Assoc",
      "EMPLOYER_COST": "",
      "EMPLOYEE_COST": "0.00"
    },
    {
      "TITLE": "Superior Vis Ser Emp Only T/S",
      "EMPLOYER_COST": "",
      "EMPLOYEE_COST": "69.12"
    },
    {
      "TITLE": "UAPB Traffic Acc TS",
      "EMPLOYER_COST": "",
      "EMPLOYEE_COST": "0.00"
    },
    {
      "TITLE": "Unemployment Comp",
      "EMPLOYER_COST": "",
      "EMPLOYEE_COST": "0.00"
    },
    {
      "TITLE": "United Way",
      "EMPLOYER_COST": "",
      "EMPLOYEE_COST": "0.00"
    },
    {
      "TITLE": "VCFA Keepers of the Spirit",
      "EMPLOYER_COST": "",
      "EMPLOYEE_COST": "0.00"
    },
    {
      "TITLE": "Workers' Compensation",
      "EMPLOYER_COST": "",
      "EMPLOYEE_COST": "0.00"
    },
    {
      "TITLE": "",
      "EMPLOYER_COST": "",
      "EMPLOYEE_COST": ""
    },
    {
      "TITLE": "Benefit Total Value",
      "EMPLOYER_COST": "10,254.06",
      "EMPLOYEE_COST": "10,563.46"
    }
  ],
  "ANNuALIZED_TAX_VALUE": 
  [
    {
      "TITLE": "Fica Tax",
      "EMPLOYER_COST": "3,676.18",
      "EMPLOYEE_COST": "3,676.18"
    },
    {
      "TITLE": "Medicare/Fica Insurance",
      "EMPLOYER_COST": "859.75",
      "EMPLOYEE_COST": "859.75"
    },
    {
      "TITLE": "Fed Withholding Tax Married",
      "EMPLOYER_COST": "",
      "EMPLOYEE_COST": "5,758.83"
    },
    {
      "TITLE": "Arkansas State Withholding Tax",
      "EMPLOYER_COST": "",
      "EMPLOYEE_COST": "2,573.42"
    },
    {
      "TITLE": "",
      "EMPLOYER_COST": "",
      "EMPLOYEE_COST": ""
    },
    {
      "TITLE": "Tax Total Value",
      "EMPLOYER_COST": "4,535.93",
      "EMPLOYEE_COST": "12,868.18"
    }
  ]
}