{
  "GRADE_TERMS": [
    {
      "TermId": "96/SP",
      "Description": "SPRING SEMESTER 1996",
      "StartDate": "01/08/96",
      "EndDate": "05/10/96"
    },
    {
      "TermId": "94/SP",
      "Description": "SPRING SEMESTER 1994",
      "StartDate": "01/10/94",
      "EndDate": "05/13/94"
    },
    {
      "TermId": "00/70",
      "Description": "Transcript Hrs From 1170",
      "StartDate": "06/30/93",
      "EndDate": "06/30/93"
    },
    {
      "TermId": "93/SP",
      "Description": "SPRING SEMESTER 1993",
      "StartDate": "01/12/93",
      "EndDate": "05/14/93"
    },
    {
      "TermId": "92/FA",
      "Description": "FALL SEMESTER 1992",
      "StartDate": "08/24/92",
      "EndDate": "12/18/92"
    },
    {
      "TermId": "92/S2",
      "Description": "SUMMER SESSION II 1992",
      "StartDate": "07/08/92",
      "EndDate": "08/11/92"
    },
    {
      "TermId": "86/FA",
      "Description": "FALL SEMESTER 1986",
      "StartDate": "08/25/86",
      "EndDate": "12/16/86"
    }
  ]
}