{
  "TRANSCRIPT_TYPES": 
  [
    {
      "ID": "GR",
      "DESC": "GR Graduate",
      "SELECTED": ""
    },
    {
      "ID": "UG",
      "DESC": "UG Undergraduate",
      "SELECTED": "Y"
    }
  ]
}