{
	"CLASS_SCHEDULE": [{
		"TITLE": "Numerical Analysis",
		"DOW": "Mo,We,Fr",
		"ST_TIME": "09:30",
		"EN_TIME": "10:30",
		"BLDG": "Main building",
		"ROOM": "107",
		"ST_DATE": "08/10/2016",
		"EN_DATE": "12/01/2016"
	}, {
		"TITLE": "Mathematics II",
		"DOW": "Tu,Th,Fr",
		"ST_TIME": "13:30",
		"EN_TIME": "14:30",
		"BLDG": "Mathematics Dept",
		"ROOM": "214",
		"ST_DATE": "08/10/2016",
		"EN_DATE": "12/01/2016"
	}, {
		"TITLE": "Biology",
		"DOW": "Tu,Th,Fr",
		"ST_TIME": "11:30",
		"EN_TIME": "12:30",
		"BLDG": "Main building",
		"ROOM": "202",
		"ST_DATE": "08/10/2016",
		"EN_DATE": "12/01/2016"
	}]
}