{
  "PAYAD_TERMS": 
  [
    {
      "yID": "2015",
      "yDES": "2015"
    },
    {
      "yID": "2014",
      "yDES": "2014"
    }
  ],
  "CURRENT_YEARS": 
  [
    {
      "date": "08/15/2016",
      "key": "327614145101722",
      "token": "3416080300"
    },
    {
      "date": "07/29/2016",
      "key": "727115343005124",
      "token": "3416080300"
    },
    {
      "date": "07/15/2016",
      "key": "224115744503828",
      "token": "3416080300"
    },
    {
      "date": "06/30/2016",
      "key": "620518942001220",
      "token": "3416080300"
    },
    {
      "date": "06/15/2016",
      "key": "722313941205426",
      "token": "3416080300"
    },
    {
      "date": "05/31/2016",
      "key": "820118944007828",
      "token": "3416080300"
    },
    {
      "date": "05/13/2016",
      "key": "528617145905527",
      "token": "3416080300"
    },
    {
      "date": "04/29/2016",
      "key": "824014849108626",
      "token": "3416080300"
    },
    {
      "date": "04/15/2016",
      "key": "024510746503824",
      "token": "3416080300"
    },
    {
      "date": "03/31/2016",
      "key": "226319842608124",
      "token": "3416080300"
    },
    {
      "date": "03/31/2016",
      "key": "129611441502028",
      "token": "3416080300"
    },
    {
      "date": "03/15/2016",
      "key": "329216548108929",
      "token": "3416080300"
    },
    {
      "date": "02/29/2016",
      "key": "321816845302326",
      "token": "3416080300"
    },
    {
      "date": "02/12/2016",
      "key": "128014945708329",
      "token": "3416080300"
    },
    {
      "date": "01/29/2016",
      "key": "322511646801322",
      "token": "3416080300"
    },
    {
      "date": "01/15/2016",
      "key": "420714449301228",
      "token": "3416080300"
    }
  ]
}