{
  "POSITION_SUMMARY": 
  [
    {
      "ST_DATE": "02/16/13",
      "EN_DATE": "",
      "TITLE": "Systems Analyst",
      "PRIMARY": "",
      "FTE": "1.000"
    },
    {
      "ST_DATE": "07/01/11",
      "EN_DATE": "02/15/13",
      "TITLE": "Network Support Analyst",
      "PRIMARY": "",
      "FTE": "1.000"
    },
    {
      "ST_DATE": "07/01/09",
      "EN_DATE": "06/30/11",
      "TITLE": "Information Systems Analyst",
      "PRIMARY": "",
      "FTE": "1.000"
    },
    {
      "ST_DATE": "03/01/05",
      "EN_DATE": "06/30/09",
      "TITLE": "Asst. Dir.-Comp. Ser. I",
      "PRIMARY": "",
      "FTE": "1.000"
    },
    {
      "ST_DATE": "08/01/03",
      "EN_DATE": "02/28/05",
      "TITLE": "Asst Dir of Computer Ser",
      "PRIMARY": "",
      "FTE": "1.000"
    },
    {
      "ST_DATE": "07/01/03",
      "EN_DATE": "07/31/03",
      "TITLE": "Assistant Dir of Computing Ser",
      "PRIMARY": "",
      "FTE": "1.000"
    },
    {
      "ST_DATE": "07/01/01",
      "EN_DATE": "06/30/03",
      "TITLE": "Asst Dir of Computer Services",
      "PRIMARY": "",
      "FTE": "1.000"
    },
    {
      "ST_DATE": "02/01/00",
      "EN_DATE": "06/30/01",
      "TITLE": "Asst. Dir.-Comp. Ser. I",
      "PRIMARY": "",
      "FTE": "1.000"
    },
    {
      "ST_DATE": "03/16/90",
      "EN_DATE": "01/31/00",
      "TITLE": "System Analyst II - Inst",
      "PRIMARY": "",
      "FTE": "1.000"
    }
  ]
}