{
  "TERM_DROPDOWN": [
    {
      "ID": "16/FA",
      "NAME": "FALL SEMESTER 2016"
    },
    {
      "ID": "16/S2",
      "NAME": "SUMMER SESSION II 2016"
    },
    {
      "ID": "16/S1",
      "NAME": "SUMMER SESSION I 2016"
    },
    {
      "ID": "16/SP",
      "NAME": "SPRING SEMESTER 2016"
    },
    {
      "ID": "15/FA",
      "NAME": "FALL SEMESTER 2015"
    },
    {
      "ID": "15/S2",
      "NAME": "SUMMER SESSION II 2015"
    },
    {
      "ID": "15/S1",
      "NAME": "SUMMER SESSION I 2015"
    },
    {
      "ID": "15/SP",
      "NAME": "SPRING SEMESTER 2015"
    } ]
}